pilotstore-sw1,10.1.1.122,24,10.1.1.1
pilotstore-sw2,10.1.1.123,24,10.1.1.1
pilotstore-sw3,10.1.1.124,24,10.1.1.1
pilotstore-sw4,10.1.1.125,24,10.1.1.1
pilotstore-sw5,10.1.1.126,24,10.1.1.1
pilotstore-sw6,10.1.1.127,24,10.1.1.1
pilotstore-sw7,10.1.1.128,24,10.1.1.1
pilotstore-sw8,10.1.1.129,24,10.1.1.1
pilotstore-sw9,10.1.1.130,24,10.1.1.1
pilotstore-sw10,10.1.1.131,24,10.1.1.1